[
    {
      "brand": "Erin Condren",
      "name": "LifePlanner",
      "tags": "weekly vertical coilbound classic 12-months 12-months-plus dated medium customizable 50-70 monday-start",
      "format": "Weekly",
      "layout": "Vertical",
      "style": "Classic Agenda",
      "binding": "Coilbound",
      "timespan": "12 or 15 months",
      "dated": "yes",
      "size": "7” x 9”",
      "customization": "Cover design, coil color",
      "extras": ["12-month perpetual calendar mini-notebook", "Snap-in plastic bookmark/ruler", "Goodie pack: 20% off coupon, gift labels, compliment cards, circle label", "Sticker sheets", "Built-in folder"],
      "price": "$55.00",
      "pageBreakdown": ["Perhaps one of the most prolific layouts in the planner sphere, the Erin Condren Vertical layout features a uniquely stacked weekly view. Each day is separated vertically into three cards, often with built-in dividers and a single small section for notes underneath. There is also dedicated space for notes next to the vertical weekly layout, which starts on Monday.", "Yearly calendar and goal setting", "Monthly calendar", "Bulletin-style monthly notes before month’s start, standard lined notes at month’s end", "Weekly pages with a Monday start", "General notes section", "Contacts and event list calendar"],
      "shortDescription": "The weekly vertical LifePlanner is a classic agenda with a twist - it features vertically stacked daily columns that you can use to break up your days however you choose.",
      "description": "<p>The weekly Erin Condren Vertical LifePlanner is a comprehensive classic agenda with a twist - it features vertically stacked daily columns that you can use to break up your days however you choose.</p><p>This best-selling coiled planner includes yearly overviews, monthly spreads, and (of course) the unique Monday-start weekly pages.</p><p>Fans of the brand will know that these planners especially shine in style and customization. Erin Condren has an excellent in-house design team that collaborates with brands like Sanrio to create planner covers for a wide range of styles. Additionally, these covers are customizable. Whether you want to design a collage cover yourself or just add your initials to a pre-styled one, there are several paths to choose from.</p>",
      "pros": ["Cover customization provides a great way to express yourself through an item you’ll use every day", "LifePlanners contain 80lb Mohawk paper, which is soft, thick, and can handle a variety of pens and markers", "Tons of accessories available for purchase that go with the planner, plus even more made by small planner businesses"],
      "cons": ["Erin Condren planners typically run on the pricier side, with the LifePlanner starting at $55 before any customization", "While there are a ton of cover customization options to choose from, the interior designs are often limited to just a few selections", "Coilbound design doesn’t allow for swapping pages in and out. Those looking for a more flexible experience should look into the <a href='http://www.plannerdb-dev.dev.cc/planners/erin-condren-lifeplanner-binder-vertical'>LifePlanner Binder</a>"],
      "goodToKnow": ["If you love the Erin Condren look and brand, but aren’t crazy about the vertical layout, you can opt for a <a href='http://www.plannerdb-dev.dev.cc/planners/erin-condren-lifeplanner-horizontal'>horizontal</a>, <a href='http://www.plannerdb-dev.dev.cc/planners/erin-condren-lifeplanner-daily'>daily</a>, or <a href='http://www.plannerdb-dev.dev.cc/planners/erin-condren-lifeplanner-hourly'>hourly</a> layout instead.", "Since the vertical LifePlanner is so popular, you can find a massive variety of stickers specifically made for this layout ranging from free to deluxe by small business on <a href=’https://www.etsy.com/search?q=erin%20condren%20vertical%20stickers'>Etsy</a>.", "If you want to skip customization and get a planner quickly, you can often find Erin Condren planners and accessories on Amazon Prime."],
      "bottomLine": "The Weekly Vertical LifePlanner is a great option for those looking for yearly, monthly, and weekly planning, all conveniently wrapped into one notebook. At 7”x9', it’s the perfect size for a large tote or bookbag and, despite using a heavy paper type, the planners don't feel too bulky to carry daily. The LifePlanner is also a fantastic option for those new to planning who want to jump in right away, as well as for experienced planners who want to decorate to their heart’s content.",
      "mainImage": "http://www.plannerdb-dev.dev.cc/wp-content/uploads/2020/11/ec-vertical-coil-main-2.png",
      "secondaryImages": ["http://www.plannerdb-dev.dev.cc/wp-content/uploads/2020/11/ec-vertical-coil-main.png", "http://www.plannerdb-dev.dev.cc/wp-content/uploads/2020/11/ec-vertical-view-coiled-close.jpg", "http://www.plannerdb-dev.dev.cc/wp-content/uploads/2020/11/ec-coiled-monthly-view.jpg"],
      "flipImages": ["http://www.plannerdb-dev.dev.cc/wp-content/uploads/2020/11/ec-coiled-yearly-overview.jpg", "http://www.plannerdb-dev.dev.cc/wp-content/uploads/2020/11/sc-coiled-goal-planning.jpg", "http://www.plannerdb-dev.dev.cc/wp-content/uploads/2020/11/ec-coiled-monthly-dash-notes.jpg", "http://www.plannerdb-dev.dev.cc/wp-content/uploads/2020/11/ec-coiled-monthly-view.jpg", "http://www.plannerdb-dev.dev.cc/wp-content/uploads/2020/11/ec-vertical-view-coiled.jpg", "http://www.plannerdb-dev.dev.cc/wp-content/uploads/2020/11/ec-vertical-view-coiled-close.jpg", "http://www.plannerdb-dev.dev.cc/wp-content/uploads/2020/11/ec-coiled-yearly-notes.jpg", "http://www.plannerdb-dev.dev.cc/wp-content/uploads/2020/11/ec-extras.jpg"],
      "penImages": ["http://www.plannerdb-dev.dev.cc/wp-content/uploads/2020/11/ec-pen-test-1.jpg", "http://www.plannerdb-dev.dev.cc/wp-content/uploads/2020/11/ec-pen-test-2.jpg"],
      "flipVideo": "",
      "reviewVideo": "",
      "purchaseLink": "https://www.amazon.com/stores/page/281E5607-4816-4669-BD32-8459433648B0?ingress=2&visitId=2af541fb-6382-4287-8710-6577d0ff6a36&ref_=ast_bln",
      "socialLink": "https://www.instagram.com/erincondren/?hl=en",
      "slug": "erin-condren-lifeplanner-vertical",
      "reviewScript": ""
    },
    {
      "brand": "Erin Condren",
      "name": "LifePlanner",
      "tags": "weekly horizontal coilbound classic 12-months 12-months-plus dated medium customizable 50-70 monday-start",
      "format": "Weekly",
      "layout": "Horizontal",
      "style": "Classic Agenda",
      "binding": "Coilbound",
      "timespan": "12 or 15 months",
      "dated": "yes",
      "size": "7” x 9”",
      "customization": "Cover design, coil color",
      "extras": ["12-month perpetual calendar mini-notebook", "Snap-in plastic bookmark/ruler", "Goodie pack: 20% off coupon, gift labels, compliment cards, circle label", "Sticker sheets", "Built-in folder"],
      "price": "$55.00",
      "pageBreakdown": ["The horizontal LifePlanner is a comprehensive classic planner that features a lined weekly layout with a Monday start. Each day consists of a horizontal block that spans about ¼ a page and contains a small blank box for creative space.", "Yearly calendar and goal setting", "Monthly calendar", "Bulletin-style monthly notes before month’s start, standard lined notes at month’s end", "Weekly pages with a Monday start", "General notes section", "Contacts and event list calendar"],
      "shortDescription": "The weekly horizontal LifePlanner is a classic agenda for yearly, monthly, and weekly planning. Each day within the weekly spread has about a ¼ page of lined horizontal writing space.",
      "description": "<p>The Erin Condren weekly horizontal LifePlanner is a classic agenda for yearly, monthly, and weekly planning. The weekly spread has about a ¼ page of lined writing space per day with a blank box for notes.</p><p>This best-selling coilbound planner includes yearly overviews, monthly spreads, and Monday-start weekly pages.</p><p>Fans of the brand know that these planners shine specifically in style and customization. The company’s excellent in-house design team creates planner covers for a wide range of styles and preferences, so there’s always something for everyone. Additionally, these covers are customizable. Whether you want to design a personalized collage cover or just add your initials to a pre-styled one, there are several paths to choose from.</p>",
      "pros": ["Cover customization provides a great way to express yourself through an item you’ll use every day", "LifePlanners contain 80lb Mohawk paper, which is soft, thick, and can handle a variety of pens and markers", "Tons of accessories available for purchase that go with the planner, plus even more made by small planner businesses"],
      "cons": ["Erin Condren planners typically run on the pricier side, with the LifePlanner starting at $55 before any customization", "While there are a ton of cover customization options to choose from, the interior designs are often limited to just a few selections", "Coilbound design doesn’t allow for easily swapping pages in and out. Those looking for a more flexible experience should look into the <a href='http://www.plannerdb-dev.dev.cc/planners/erin-condren-lifeplanner-binder-horizontal'>LifePlanner Binder</a>"],
      "goodToKnow": ["If you love the Erin Condren look and brand, but aren’t crazy about the horizontal layout, you can opt for a <a href='http://www.plannerdb-dev.dev.cc/planners/erin-condren-lifeplanner-vertical'>vertical</a>, <a href='http://www.plannerdb-dev.dev.cc/planners/erin-condren-lifeplanner-daily'>daily</a>, or <a href='http://www.plannerdb-dev.dev.cc/planners/erin-condren-lifeplanner-hourly'>hourly</a> layout instead.", "Since the horizontal LifePlanner is so popular, you can find a massive variety of stickers specifically for this layout created by small business on <a href=’https://www.etsy.com/search?q=erin+condren+horizontal+stickers&_qc=erin+condren+horizontal+stickers'>Etsy</a>.", "If you want to skip customization and get a planner quickly, you can often find Erin Condren planners and accessories on Amazon Prime."],
      "bottomLine": "The weekly horizontal LifePlanner is a great option with yearly, monthly, and weekly planning, all conveniently wrapped into one notebook. At 7”x9', it’s the perfect size for a large tote or bookbag and, despite using a rich and heavy paper type, the planners don't feel too bulky to carry daily. The LifePlanner is also a fantastic option for those new to planning who want to jump in right away or for experienced planners who love the horizontal layout style.",
      "mainImage": "http://www.plannerdb-dev.dev.cc/wp-content/uploads/2020/11/ec-horizontal-main.jpg",
      "secondaryImages": ["http://www.plannerdb-dev.dev.cc/wp-content/uploads/2020/11/ec-horizontal-main.jpg", "http://www.plannerdb-dev.dev.cc/wp-content/uploads/2020/11/ec-hourly-main-alt.jpg", "http://www.plannerdb-dev.dev.cc/wp-content/uploads/2020/11/ec-coiled-horizontal-weekly-close.jpg"],
      "flipImages": ["http://www.plannerdb-dev.dev.cc/wp-content/uploads/2020/11/ec-coiled-yearly-overview.jpg", "http://www.plannerdb-dev.dev.cc/wp-content/uploads/2020/11/sc-coiled-goal-planning.jpg", "http://www.plannerdb-dev.dev.cc/wp-content/uploads/2020/11/ec-coiled-monthly-dash-notes.jpg", "http://www.plannerdb-dev.dev.cc/wp-content/uploads/2020/11/ec-coiled-monthly-view.jpg", "http://www.plannerdb-dev.dev.cc/wp-content/uploads/2020/11/ec-coiled-horizontal-weekly.jpg", "http://www.plannerdb-dev.dev.cc/wp-content/uploads/2020/11/ec-coiled-horizontal-weekly-close.jpg", "http://www.plannerdb-dev.dev.cc/wp-content/uploads/2020/11/ec-coiled-yearly-notes.jpg", "http://www.plannerdb-dev.dev.cc/wp-content/uploads/2020/11/ec-extras.jpg"],
      "penImages": ["http://www.plannerdb-dev.dev.cc/wp-content/uploads/2020/11/ec-pen-test-1.jpg", "http://www.plannerdb-dev.dev.cc/wp-content/uploads/2020/11/ec-pen-test-2.jpg"],
      "flipVideo": "",
      "reviewVideo": "",
      "purchaseLink": "https://www.amazon.com/stores/page/58EF97A9-1705-44B6-8605-8D58C8A8776E?ingress=2&visitId=2af541fb-6382-4287-8710-6577d0ff6a36&ref_=ast_bln",
      "socialLink": "https://www.instagram.com/erincondren/?hl=en",
      "slug": "erin-condren-lifeplanner-horizontal",
      "reviewScript": ""
    },
    {
      "brand": "Erin Condren",
      "name": "LifePlanner",
      "tags": "weekly daily hourly coilbound classic 12-months 12-months-plus dated medium customizable 50-70 monday-start",
      "format": "Weekly",
      "layout": "Hourly",
      "style": "Classic Agenda",
      "binding": "Coilbound",
      "timespan": "12 or 15 months",
      "dated": "yes",
      "size": "7” x 9”",
      "customization": "Cover design, coil color",
      "extras": ["12-month perpetual calendar mini-notebook", "Snap-in plastic bookmark/ruler", "Goodie pack: 20% off coupon, gift labels, compliment cards, circle label", "Sticker sheets", "Built-in folder"],
      "price": "$55.00",
      "pageBreakdown": ["The Hourly LifePlanner features a Monday-start and weekly planning space containing individual 13-hour days. Each day consists of a vertical column that spans about ¼ a page and contains a small box at the bottom for creative space.", "Yearly calendar and goal setting", "Monthly calendar", "Bulletin-style monthly notes before month’s start, standard lined notes at month’s end", "Weekly/hourly pages with a Monday start", "General notes section", "Contacts and event list calendar"],
      "shortDescription": "The Hourly LifePlanner is a classic agenda for yearly, monthly, and weekly planning. Each day within the weekly spread has about a ¼ page of writing space separated by hourly blocks.",
      "description": "<p>The Erin Condren weekly horizontal LifePlanner is a classic agenda for yearly, monthly, weekly, and hourly planning. Each day of the week has about a ¼ page of writing space separated by hourly blocks that span from 6:00 am to 7:00 pm.</p><p>This best-selling coilbound planner includes yearly overviews, monthly spreads, and Monday-start weekly pages.</p><p>Fans of the brand know that these planners shine specifically in style and customization. The company’s excellent in-house design team creates planner covers for a wide range of styles and preferences, so there’s always something for everyone. Additionally, these covers are customizable. Whether you want a personalized collage cover or just add your initials to a pre-styled one, there are several paths to choose from.</p>",
      "pros": ["Cover customization provides a great way to express yourself through an item you’ll use every day", "LifePlanners contain 80lb Mohawk paper, which is soft, thick, and can handle a variety of pens and markers", "Tons of accessories available for purchase that go with the planner, plus even more made by small planner businesses"],
      "cons": ["If your life is lived in odd hours, the 6:00 am to 7:00 pm pre-labeled daily format may not be the best fit for you", "Erin Condren planners typically run on the pricier side, with the LifePlanner starting at $55 before any customization", "Coilbound design doesn’t allow for easily swapping pages in and out. Those looking for a more flexible experience should look into the <a href='http://www.plannerdb-dev.dev.cc/planners/erin-condren-lifeplanner-binder-daily'>LifePlanner Binder</a>"],
      "goodToKnow": ["If you love the Erin Condren look and brand, but aren’t crazy about the hourly layout, you can opt for a <a href='http://www.plannerdb-dev.dev.cc/planners/erin-condren-lifeplanner-vertical'>vertical</a>, <a href='http://www.plannerdb-dev.dev.cc/planners/erin-condren-lifeplanner-daily'>daily</a>, or <a href='http://www.plannerdb-dev.dev.cc/planners/erin-condren-lifeplanner-horizontal'>horizontal</a> layout instead.", "Since the hourly LifePlanner is so popular, you can find a massive variety of stickers specifically for this layout created by small business on <a href=’https://www.etsy.com/search?q=erin%20condren%20hourly%20stickers'>Etsy</a>.", "If you want to skip customization and get a planner quickly, you can often find Erin Condren planners and accessories on Amazon Prime."],
      "bottomLine": "The Hourly LifePlanner is a great option with yearly, monthly, and weekly planning all conveniently wrapped into one notebook. At 7”x9', it’s the perfect size for a large tote or bookbag and, despite using a rich and heavy paper type, the planners don't feel too bulky to carry daily. The LifePlanner is also a fantastic option for those who need to manage schedules, appointments, and meetings by the hour throughout their day.",
      "mainImage": "http://www.plannerdb-dev.dev.cc/wp-content/uploads/2020/11/ec-hourly-main-alt.jpg",
      "secondaryImages": ["http://www.plannerdb-dev.dev.cc/wp-content/uploads/2020/11/ec-hourly-main.jpg", "http://www.plannerdb-dev.dev.cc/wp-content/uploads/2020/11/ec-hourly-weekly.jpg", "http://www.plannerdb-dev.dev.cc/wp-content/uploads/2020/11/ec-hourly-weekly-closeup.jpg"],
      "flipImages": ["http://www.plannerdb-dev.dev.cc/wp-content/uploads/2020/11/ec-coiled-yearly-overview.jpg", "http://www.plannerdb-dev.dev.cc/wp-content/uploads/2020/11/sc-coiled-goal-planning.jpg", "http://www.plannerdb-dev.dev.cc/wp-content/uploads/2020/11/ec-coiled-monthly-dash-notes.jpg", "http://www.plannerdb-dev.dev.cc/wp-content/uploads/2020/11/ec-coiled-monthly-view.jpg", "http://www.plannerdb-dev.dev.cc/wp-content/uploads/2020/11/ec-hourly-weekly.jpg", "http://www.plannerdb-dev.dev.cc/wp-content/uploads/2020/11/ec-hourly-weekly-closeup.jpg", "http://www.plannerdb-dev.dev.cc/wp-content/uploads/2020/11/ec-coiled-yearly-notes.jpg", "http://www.plannerdb-dev.dev.cc/wp-content/uploads/2020/11/ec-extras.jpg"],
      "penImages": ["http://www.plannerdb-dev.dev.cc/wp-content/uploads/2020/11/ec-pen-test-1.jpg", "http://www.plannerdb-dev.dev.cc/wp-content/uploads/2020/11/ec-pen-test-2.jpg"],
      "flipVideo": "",
      "reviewVideo": "",
      "purchaseLink": "https://www.amazon.com/stores/page/6F227502-203B-4FE4-8DB0-74F65227CB55?ingress=2&visitId=2af541fb-6382-4287-8710-6577d0ff6a36&ref_=ast_bln",
      "socialLink": "https://www.instagram.com/erincondren/?hl=en",
      "slug": "erin-condren-lifeplanner-hourly",
      "reviewScript": ""
    },
    {
      "brand": "Erin Condren",
      "name": "LifePlanner Duo",
      "tags": "daily hourly mixed coilbound classic 12-months 6-months dated medium customizable 50-70",
      "format": "Daily",
      "layout": "Hourly-Mixed",
      "style": "Classic Agenda",
      "binding": "Coilbound",
      "timespan": "6 months",
      "dated": "yes",
      "size": "7” x 9”",
      "customization": "Cover design, coil color",
      "extras": ["12-month perpetual calendar mini-notebook", "Snap-in plastic bookmark/ruler", "Goodie pack: 20% off coupon, gift labels, compliment cards, circle label", "Sticker sheets", "Built-in folder"],
      "price": "$68.00",
      "pageBreakdown": ["The Daily LifePlanner Duo features a yearly, monthly, and daily planning space. Each day consists of a full-page spread, with one half being an hourly list, and the other a to-do list and a blank space for notes. Weekend days share one page with lined space for writing and a blank space at the bottom for notes.", "Yearly calendar and goal setting", "Monthly calendar", "Bulletin-style monthly notes before month’s start, standard lined notes at month’s end", "Daily full pages", "Weekday half-pages", "Small general notes section"],
      "shortDescription": "The Daily LifePlanner Duo is a pack of two classic agendas for yearly, monthly, and daily planning. Weekdays have a full page of dedicated space, making it an atypical Erin Condren layout.",
      "description": "<p>The Daily LifePlanner Duo by Erin Condren is a pack of two classic agendas for yearly, monthly, and daily planning. Weekdays have a full page of dedicated space while weekend days share a one-page spread. This style makes it an atypical Erin Condren layout when compared to their more popular weekly planners.</p><p>The daily planner has a similar thickness/size to other LifePlanner layouts due to it’s split design, meaning the Daily Duo comes as a set of two separate 6-month daily planners.</p><p>Fans of the brand know that these planners shine specifically in style and customization. The company’s excellent in-house design team creates planner covers for a wide range of styles and preferences, so there’s always something for everyone. Additionally, these covers are customizable. Whether you want a personalized collage cover or to add your initials to a pre-styled one, there are several paths to choose from.</p>",
      "pros": ["Full daily pages are awesome for those who need more than a ¼ page column of planning space", "LifePlanners contain 80lb Mohawk paper, which is soft, thick, and can handle a variety of pens and markers", "Tons of accessories available for purchase that go with the planner, plus even more made by small planner businesses"],
      "cons": ["If your life is lived in odd hours, the 6:00 am to 7:00 pm pre-labeled hourly section may not be the best fit for you", "Erin Condren planners typically run on the pricier side, with the Daily LifePlanner Duo pack starting at $68 before any customization", "Coilbound design doesn’t allow for easily swapping pages in and out. Those looking for a more flexible experience should look into the <a href='http://www.plannerdb-dev.dev.cc/planners/erin-condren-lifeplanner-binder-daily'>LifePlanner Binder</a>"],
      "goodToKnow": ["If you love the Erin Condren look and brand, but aren’t crazy about the daily layout, you can opt for a weekly <a href='http://www.plannerdb-dev.dev.cc/planners/erin-condren-lifeplanner-vertical'>vertical</a>, <a href='http://www.plannerdb-dev.dev.cc/planners/erin-condren-lifeplanner-hourly'>hourly</a>, or <a href='http://www.plannerdb-dev.dev.cc/planners/erin-condren-lifeplanner-horizontal'>horizontal</a> layout instead.", "Since the LifePlanner is so popular, you can find a massive variety of stickers specifically for this layout created by small business on <a href=’https://www.etsy.com/search?q=erin%20condren%20daily%20duo'>Etsy</a>.", "If you want to skip customization and get a planner quickly, you can often find Erin Condren planners and accessories on Amazon Prime."],
      "bottomLine": "The Daily LifePlanner Duo is a great option with yearly, monthly, and daily planning wrapped into two 6-month notebooks. At 7”x9', it’s the perfect size for a large tote or bookbag and, despite using a rich and heavy paper type, the planners don't feel too bulky to carry daily. The LifePlanner is also a fantastic option for those who need to manage schedules, appointments, and meetings by the hour throughout their day.",
      "mainImage": "http://www.plannerdb-dev.dev.cc/wp-content/uploads/2020/11/ec-daily-duo-main.jpg",
      "secondaryImages": ["http://www.plannerdb-dev.dev.cc/wp-content/uploads/2020/11/ec-daily-duo-main.jpg", "http://www.plannerdb-dev.dev.cc/wp-content/uploads/2020/11/ec-daily-coiled-2-weekdays.jpg", "http://www.plannerdb-dev.dev.cc/wp-content/uploads/2020/11/ec-daily-coiled-weekday-close.jpg"],
      "flipImages": ["http://www.plannerdb-dev.dev.cc/wp-content/uploads/2020/11/ec-coiled-yearly-overview.jpg", "http://www.plannerdb-dev.dev.cc/wp-content/uploads/2020/11/sc-coiled-goal-planning.jpg", "http://www.plannerdb-dev.dev.cc/wp-content/uploads/2020/11/ec-coiled-monthly-dash-notes.jpg", "http://www.plannerdb-dev.dev.cc/wp-content/uploads/2020/11/ec-coiled-monthly-view.jpg", "http://www.plannerdb-dev.dev.cc/wp-content/uploads/2020/11/ec-daily-coiled-weekday-close.jpg", "http://www.plannerdb-dev.dev.cc/wp-content/uploads/2020/11/ec-daily-coiled-weekend-close.jpg", "http://www.plannerdb-dev.dev.cc/wp-content/uploads/2020/11/ec-coiled-yearly-notes.jpg", "http://www.plannerdb-dev.dev.cc/wp-content/uploads/2020/11/ec-extras.jpg"],
      "penImages": ["http://www.plannerdb-dev.dev.cc/wp-content/uploads/2020/11/ec-pen-test-1.jpg", "http://www.plannerdb-dev.dev.cc/wp-content/uploads/2020/11/ec-pen-test-2.jpg"],
      "flipVideo": "",
      "reviewVideo": "",
      "purchaseLink": "https://www.amazon.com/stores/page/31F56AA8-7D6E-4F1A-9B40-9F463D890EFF?ingress=2&visitId=2af541fb-6382-4287-8710-6577d0ff6a36&ref_=ast_bln",
      "socialLink": "https://www.instagram.com/erincondren/?hl=en",
      "slug": "erin-condren-lifeplanner-daily",
      "reviewScript": ""
    },
    {
      "brand": "Erin Condren",
      "name": "LifePlanner Binder",
      "tags": "weekly vertical ring classic 12-months 12-months-plus dated medium customizable 50-70 monday-start",
      "format": "Weekly",
      "layout": "Vertical",
      "style": "Classic Agenda",
      "binding": "Ringbound",
      "timespan": "12 or 15 months",
      "dated": "yes",
      "size": "8.57\" X 10\"",
      "customization": "Cover initials",
      "extras": ["Snap-in ruler* these are supposed to be included per the website, but was missing from my order", "Sticker sheets", "Keep it together folder", "Erin Condren Newsletter", "Gift labels for first-time orders"],
      "price": "$55.00",
      "pageBreakdown": ["Perhaps one of the most prolific layouts in the planner sphere, the Erin Condren Vertical layout features a uniquely stacked weekly view. Each day is separated vertically into three cards, often with built-in dividers and a single small section for notes underneath. There is also dedicated space for notes next to the vertical weekly layout, which starts on Monday.", "Yearly calendar and goal setting", "Monthly calendar", "Bulletin-style monthly notes before month’s start, standard lined notes at month’s end", "Weekly pages with a Monday start", "General notes section", "Contacts and event list calendar"],
      "shortDescription": "The weekly Vertical LifePlanner Binder is a classic agenda with a twist - it features vertically stacked daily columns that you can use to break up your days however you choose and comes in a ring binder.",
      "description": "<p>The weekly Vertical LifePlanner Binder is a classic agenda with a twist - it features vertically stacked daily columns that you can use to break up your days however you choose and comes in a ring binder.</p><p>This best-selling layout includes yearly overviews, monthly spreads, and (of course) the unique Monday-start weekly pages.</p><p>While the LifePlanner Binder doesn’t have as wide a range of designs or customization options, the ability to add initials in gold, silver, or rose gold foil is still there.</p>",
      "pros": ["The sturdy ring binder design means that your pages stay safe and well-protected inside your bag", "LifePlanners contain 80lb Mohawk paper, which is soft, thick, and can handle a variety of pens and markers", "Tons of accessories available for purchase that go with the planner, plus even more made by small planner businesses"],
      "cons": ["The binder design utilizes a unique hole-punch style, so you will need to purchase a compatible hole-punch to add pages", "Erin Condren planners typically run on the pricier side, with the LifePlanner Binder starting at $55 before any customization", "The same in-planner extras that come with the coilbound LifePlanner come with the ring binder version as well, but are not hole-punched to fit inside the binder"],
      "goodToKnow": ["If you love the LifePlanner Binder look and feel, then you should know Erin Condren also offers the same layouts as the coiled planners, which you can view here: <a href='http://www.plannerdb-dev.dev.cc/planners/erin-condren-lifeplanner-daily'>daily</a>, <a href='http://www.plannerdb-dev.dev.cc/planners/erin-condren-lifeplanner-hourly'>hourly</a>, or <a href='http://www.plannerdb-dev.dev.cc/planners/erin-condren-lifeplanner-horizontal'>horizontal</a>.", "If you want to skip customization and get a planner quickly, you can often find Erin Condren planners and accessories on Amazon Prime.", "As mentioned in the ‘cons’ section above, the included sticker sheets and extra folder are coil-punched to fit inside a coiled planner, but not hole-punched to fit inside the ring binder. That means, in order to keep all your goodies together, you’ll have to purchase the specific hole punch for this planner, which is disappointing for a company known for its high-quality planners and extras."],
      "bottomLine": "The LifePlanner Binder is an excellent choice for those who love the size and layouts of Erin Condren planners and want the ability to add/remove pages at will. With the ring binder design, you can simply purchase packs of pages to refill it, as well as many custom pages/planners made by small businesses (as long as you purchase the special hole-punch required).",
      "mainImage": "http://www.plannerdb-dev.dev.cc/wp-content/uploads/2020/11/ec-binder-main.jpg",
      "secondaryImages": ["http://www.plannerdb-dev.dev.cc/wp-content/uploads/2020/11/ec-binder-ring-view.jpg", "http://www.plannerdb-dev.dev.cc/wp-content/uploads/2020/11/ec-binder-cover-closeup-view.jpg", "http://www.plannerdb-dev.dev.cc/wp-content/uploads/2020/11/ec-binder-top-view.jpg"],
      "flipImages": ["http://www.plannerdb-dev.dev.cc/wp-content/uploads/2020/11/ec-binder-extras.jpg", "http://www.plannerdb-dev.dev.cc/wp-content/uploads/2020/11/ec-binder-yearly-overview.jpg", "http://www.plannerdb-dev.dev.cc/wp-content/uploads/2020/11/ec-binder-goals.jpg", "http://www.plannerdb-dev.dev.cc/wp-content/uploads/2020/11/ec-binder-monthly-planning.jpg", "http://www.plannerdb-dev.dev.cc/wp-content/uploads/2020/11/ec-binder-monthly-dash-notes.jpg", "http://www.plannerdb-dev.dev.cc/wp-content/uploads/2020/11/ec-binder-monthly-dash.jpg", "http://www.plannerdb-dev.dev.cc/wp-content/uploads/2020/11/ec-binder-weekly.jpg", "http://www.plannerdb-dev.dev.cc/wp-content/uploads/2020/11/ec-binder-ring-view.jpg"],
      "penImages": ["http://www.plannerdb-dev.dev.cc/wp-content/uploads/2020/11/ec-pen-test-1.jpg", "http://www.plannerdb-dev.dev.cc/wp-content/uploads/2020/11/ec-pen-test-2.jpg"],
      "flipVideo": "",
      "reviewVideo": "",
      "purchaseLink": "https://www.amazon.com/stores/page/53EA7F25-F999-436B-A3D9-BD952F952853?ingress=2&visitId=2af541fb-6382-4287-8710-6577d0ff6a36&ref_=ast_bln",
      "socialLink": "https://www.instagram.com/erincondren/?hl=en",
      "slug": "erin-condren-lifeplanner-binder-vertical",
      "reviewScript": ""
    }
   ]